<svg width="32" height="32" viewBox="0 0 32 32" fill="none" xmlns="http://www.w3.org/2000/svg">
<circle cx="16" cy="16" r="16" fill="#0D28A6"/>
<path d="M21 7.66699H18.5C17.395 7.66699 16.3352 8.10598 15.5538 8.88738C14.7724 9.66878 14.3334 10.7286 14.3334 11.8337V14.3337H11.8334V17.667H14.3334V24.3337H17.6667V17.667H20.1667L21 14.3337H17.6667V11.8337C17.6667 11.6126 17.7545 11.4007 17.9108 11.2444C18.0671 11.0881 18.279 11.0003 18.5 11.0003H21V7.66699Z" stroke="white" stroke-linecap="round" stroke-linejoin="round"/>
</svg>
